module gitlab.com/joejulian/dummylb

go 1.12

require (
	github.com/Sirupsen/logrus v1.0.5
	github.com/gogo/protobuf v1.3.2 // indirect
	github.com/golang/protobuf v1.5.1 // indirect
	github.com/google/gofuzz v1.2.0 // indirect
	github.com/googleapis/gnostic v0.5.4 // indirect
	golang.org/x/crypto v0.0.0-20210322153248-0c34fe9e7dc2 // indirect
	golang.org/x/net v0.0.0-20210326060303-6b1517762897 // indirect
	golang.org/x/oauth2 v0.0.0-20210323180902-22b0adad7558 // indirect
	golang.org/x/term v0.0.0-20210317153231-de623e64d2a6 // indirect
	golang.org/x/text v0.3.5 // indirect
	golang.org/x/time v0.0.0-20210220033141-f8bda1e9f3ba // indirect
	google.golang.org/appengine v1.6.7 // indirect
	gopkg.in/airbrake/gobrake.v2 v2.0.9 // indirect
	gopkg.in/gemnasium/logrus-airbrake-hook.v2 v2.1.2 // indirect
	gopkg.in/yaml.v2 v2.4.0 // indirect
	gopkg.in/yaml.v3 v3.0.0-20210107192922-496545a6307b // indirect
	k8s.io/api v0.20.5
	k8s.io/apimachinery v0.20.5
	k8s.io/client-go v0.20.5
	k8s.io/cloud-provider v0.20.5
	k8s.io/klog/v2 v2.8.0 // indirect
	k8s.io/kube-openapi v0.0.0-20210323165736-1a6458611d18 // indirect
	k8s.io/utils v0.0.0-20210305010621-2afb4311ab10 // indirect
	sigs.k8s.io/structured-merge-diff/v4 v4.1.0 // indirect
)
